<?xml version="1.0" encoding="UTF-8"?>
<svg width="164px" height="65px" viewBox="0 0 164 65" version="1.1" xmlns="http://www.w3.org/2000/svg" xmlns:xlink="http://www.w3.org/1999/xlink">
    <!-- Generator: Sketch 49 (51002) - http://www.bohemiancoding.com/sketch -->
    <title>eleven-international-logo</title>
    <desc>Created with Sketch.</desc>
    <defs></defs>
    <g id="Page-1" stroke="none" stroke-width="1" fill="none" fill-rule="evenodd">
        <g id="Artboard" transform="translate(-13.000000, -27.000000)" fill="#FFFFFF">
            <g id="eleven-international-logo" transform="translate(10.000000, 16.000000)">
                <g id="INTERNATIONAL" transform="translate(3.000000, 55.000000)" font-family="GillSans-Light, Gill Sans" font-size="22" font-weight="300"
                >
                    <text>
                        <tspan x="0" y="20">INTERNATIONAL</tspan>
                    </text>
                </g>
                <g id="ELEVEN" font-family="GillSans, Gill Sans"  font-weight="normal" font-size="50">
                    <text>
                        <tspan x="0" y="46">ELEVEN</tspan>
                    </text>
                </g>
            </g>
        </g>
    </g>
</svg>